FIP606 -
…
Importa o arquivo da planilha online

notas <- gsheet2tbl("https://docs.google.com/spreadsheets/d/1bq2N19DcZdtax2fQW9OHSGMR0X2__Z9T/edit#gid=1092065531")

Separação das notas da prova 1 e prova 2

notas1 <- notas %>% 
  select(prova, nota) %>% 
  filter(prova == "1")
notas1

# A tibble: 22 × 2
   prova  nota
   <dbl> <dbl>
 1     1  71.4
 2     1  92.9
 3     1  85.7
 4     1  42.9
 5     1 100  
 6     1  85.7
 7     1 100  
 8     1  57.1
 9     1 100  
10     1  71.4
# ℹ 12 more rows

notas2 <- notas %>% 
  select(prova, nota) %>% 
  filter(prova == "2")
notas2

# A tibble: 22 × 2
   prova  nota
   <dbl> <dbl>
 1     2  81.2
 2     2  68.8
 3     2  87.5
 4     2  87.5
 5     2  87.5
 6     2 100  
 7     2 100  
 8     2 100  
 9     2 100  
10     2  43.8
# ℹ 12 more rows
…
