FIP606 -
…
Funções de manipulação de dados:

Iremos rever algumas funções ou verbos do pacote dplyr

Select()

Variação de como selecionar as colunas utilizando os criterios.

# Estou selecionando apenas algumas colunas, 1 a 10 e a coluna 13.

cr %>% 
  select(1:10, 13)

# A tibble: 405 × 11
    farm region zone       district      lon   lat altitude cultivar shade    
   <dbl> <chr>  <chr>      <chr>       <dbl> <dbl>    <dbl> <chr>    <chr>    
 1     1 SNNPR  Bench Maji Debub Bench  35.4  6.90     1100 Local    Sun      
 2     2 SNNPR  Bench Maji Debub Bench  35.4  6.90     1342 Mixture  Mid shade
 3     3 SNNPR  Bench Maji Debub Bench  35.4  6.90     1434 Mixture  Mid shade
 4     4 SNNPR  Bench Maji Debub Bench  35.4  6.90     1100 Local    Sun      
 5     5 SNNPR  Bench Maji Debub Bench  35.4  6.90     1400 Local    Sun      
 6     6 SNNPR  Bench Maji Debub Bench  35.4  6.90     1342 Mixture  Mid shade
 7     7 SNNPR  Bench Maji Debub Bench  35.4  6.90     1432 Mixture  Mid shade
 8     8 SNNPR  Bench Maji Debub Bench  35.4  6.90     1100 Local    Sun      
 9     9 SNNPR  Bench Maji Debub Bench  35.4  6.89     1400 Local    Sun      
10    10 SNNPR  Bench Maji Debub Bench  35.4  6.88     1342 Mixture  Mid shade
# ℹ 395 more rows
# ℹ 2 more variables: cropping_system <chr>, sev2 <dbl>

# Posso selecionar as coluna por nomes. 

cr %>% 
  select(farm, region, inc, sev2)

# A tibble: 405 × 4
    farm region   inc  sev2
   <dbl> <chr>  <dbl> <dbl>
 1     1 SNNPR   86.7 55.6 
 2     2 SNNPR   51.3 17.9 
 3     3 SNNPR   43.2  8.25
 4     4 SNNPR   76.7 46.1 
 5     5 SNNPR   47.2 12.3 
 6     6 SNNPR   51.3 19.9 
 7     7 SNNPR   48.3 11.9 
 8     8 SNNPR   86.7 55.6 
 9     9 SNNPR   47.2 11.6 
10    10 SNNPR   51.1 11.4 
# ℹ 395 more rows

# Selecionei todas as colunas, menos a "sev2".

cr %>% 
  select(-sev2)

# A tibble: 405 × 12
    farm region zone       district      lon   lat altitude cultivar shade    
   <dbl> <chr>  <chr>      <chr>       <dbl> <dbl>    <dbl> <chr>    <chr>    
 1     1 SNNPR  Bench Maji Debub Bench  35.4  6.90     1100 Local    Sun      
 2     2 SNNPR  Bench Maji Debub Bench  35.4  6.90     1342 Mixture  Mid shade
 3     3 SNNPR  Bench Maji Debub Bench  35.4  6.90     1434 Mixture  Mid shade
 4     4 SNNPR  Bench Maji Debub Bench  35.4  6.90     1100 Local    Sun      
 5     5 SNNPR  Bench Maji Debub Bench  35.4  6.90     1400 Local    Sun      
 6     6 SNNPR  Bench Maji Debub Bench  35.4  6.90     1342 Mixture  Mid shade
 7     7 SNNPR  Bench Maji Debub Bench  35.4  6.90     1432 Mixture  Mid shade
 8     8 SNNPR  Bench Maji Debub Bench  35.4  6.90     1100 Local    Sun      
 9     9 SNNPR  Bench Maji Debub Bench  35.4  6.89     1400 Local    Sun      
10    10 SNNPR  Bench Maji Debub Bench  35.4  6.88     1342 Mixture  Mid shade
# ℹ 395 more rows
# ℹ 3 more variables: cropping_system <chr>, farm_management <chr>, inc <dbl>

# Para quando tem muitas colunas que quero excluir.

cr %>% 
  select(- c(inc, sev2))

# A tibble: 405 × 11
    farm region zone       district      lon   lat altitude cultivar shade    
   <dbl> <chr>  <chr>      <chr>       <dbl> <dbl>    <dbl> <chr>    <chr>    
 1     1 SNNPR  Bench Maji Debub Bench  35.4  6.90     1100 Local    Sun      
 2     2 SNNPR  Bench Maji Debub Bench  35.4  6.90     1342 Mixture  Mid shade
 3     3 SNNPR  Bench Maji Debub Bench  35.4  6.90     1434 Mixture  Mid shade
 4     4 SNNPR  Bench Maji Debub Bench  35.4  6.90     1100 Local    Sun      
 5     5 SNNPR  Bench Maji Debub Bench  35.4  6.90     1400 Local    Sun      
 6     6 SNNPR  Bench Maji Debub Bench  35.4  6.90     1342 Mixture  Mid shade
 7     7 SNNPR  Bench Maji Debub Bench  35.4  6.90     1432 Mixture  Mid shade
 8     8 SNNPR  Bench Maji Debub Bench  35.4  6.90     1100 Local    Sun      
 9     9 SNNPR  Bench Maji Debub Bench  35.4  6.89     1400 Local    Sun      
10    10 SNNPR  Bench Maji Debub Bench  35.4  6.88     1342 Mixture  Mid shade
# ℹ 395 more rows
# ℹ 2 more variables: cropping_system <chr>, farm_management <chr>

Filter()

Filtar apenas linhas especificas.

cr %>% 
  select(farm, region, inc) %>% 
  filter(inc > 50)

# A tibble: 70 × 3
    farm region   inc
   <dbl> <chr>  <dbl>
 1     1 SNNPR   86.7
 2     2 SNNPR   51.3
 3     4 SNNPR   76.7
 4     6 SNNPR   51.3
 5     8 SNNPR   86.7
 6    10 SNNPR   51.1
 7    12 SNNPR   76.0
 8    14 SNNPR   51.3
 9    16 SNNPR   53.2
10    20 SNNPR   52.2
# ℹ 60 more rows

cr %>% 
  select(farm, region, inc) %>% 
  filter(region == "SNNPR")

# A tibble: 240 × 3
    farm region   inc
   <dbl> <chr>  <dbl>
 1     1 SNNPR   86.7
 2     2 SNNPR   51.3
 3     3 SNNPR   43.2
 4     4 SNNPR   76.7
 5     5 SNNPR   47.2
 6     6 SNNPR   51.3
 7     7 SNNPR   48.3
 8     8 SNNPR   86.7
 9     9 SNNPR   47.2
10    10 SNNPR   51.1
# ℹ 230 more rows

cr %>% 
  select(farm, region, zone, inc) %>% 
  filter(zone == "Bench Maji")

# A tibble: 45 × 4
    farm region zone         inc
   <dbl> <chr>  <chr>      <dbl>
 1     1 SNNPR  Bench Maji  86.7
 2     2 SNNPR  Bench Maji  51.3
 3     3 SNNPR  Bench Maji  43.2
 4     4 SNNPR  Bench Maji  76.7
 5     5 SNNPR  Bench Maji  47.2
 6     6 SNNPR  Bench Maji  51.3
 7     7 SNNPR  Bench Maji  48.3
 8     8 SNNPR  Bench Maji  86.7
 9     9 SNNPR  Bench Maji  47.2
10    10 SNNPR  Bench Maji  51.1
# ℹ 35 more rows

#Estou pegando todas as zonas menos a Bench MAji. **"!="**
cr %>% 
  select(farm, region, zone, inc) %>% 
  filter(zone != "Bench Maji")

# A tibble: 360 × 4
    farm region zone    inc
   <dbl> <chr>  <chr> <dbl>
 1    46 SNNPR  Sheka  81.8
 2    47 SNNPR  Sheka  29.5
 3    48 SNNPR  Sheka  31.5
 4    49 SNNPR  Sheka  54.5
 5    50 SNNPR  Sheka  74.5
 6    51 SNNPR  Sheka  32.7
 7    52 SNNPR  Sheka  42.4
 8    53 SNNPR  Sheka  74.2
 9    54 SNNPR  Sheka  76.9
10    55 SNNPR  Sheka  33.2
# ℹ 350 more rows
…
Outro operador dentro do filtro que permite selecionar mais de uma condição dentro do nome zone. Estou selecionando duas zonas “Bench Maji”, “Keffa”.

%in%

cr2 <- cr %>% 
  select(farm, region, zone, inc) %>% 
  filter(zone %in% c("Bench Maji", "Keffa"))

cr %>% 
  select(farm, region, zone, inc) %>% 
  filter(region == "SNNPR") %>% 
  filter(zone != "Sidama")

# A tibble: 180 × 4
    farm region zone         inc
   <dbl> <chr>  <chr>      <dbl>
 1     1 SNNPR  Bench Maji  86.7
 2     2 SNNPR  Bench Maji  51.3
 3     3 SNNPR  Bench Maji  43.2
 4     4 SNNPR  Bench Maji  76.7
 5     5 SNNPR  Bench Maji  47.2
 6     6 SNNPR  Bench Maji  51.3
 7     7 SNNPR  Bench Maji  48.3
 8     8 SNNPR  Bench Maji  86.7
 9     9 SNNPR  Bench Maji  47.2
10    10 SNNPR  Bench Maji  51.1
# ℹ 170 more rows
…
# Contar quantas zonas tenho em cada distrito. Deixa meu arquivo em formato longo, onde repete os nome da zone. 

cr %>%
  count(zone, district)

# A tibble: 27 × 3
   zone        district         n
   <chr>       <chr>        <int>
 1 Bale        Delo Menna      15
 2 Bale        Harena Buluk    15
 3 Bench Maji  Debub Bench     15
 4 Bench Maji  Guraferda       15
 5 Bench Maji  Sheko           15
 6 Gedio       Dila Zuria      15
 7 Gedio       Wenago          15
 8 Gedio       Yirgachefe      15
 9 Ilu AbaBora Ale             15
10 Ilu AbaBora Matu            15
# ℹ 17 more rows

OBS: Podemos fazer a mesma coisa do count(), utilizando o tally()

group_by

cr %>%
  group_by(zone, district) %>% 
  tally()

# A tibble: 27 × 3
# Groups:   zone [9]
   zone        district         n
   <chr>       <chr>        <int>
 1 Bale        Delo Menna      15
 2 Bale        Harena Buluk    15
 3 Bench Maji  Debub Bench     15
 4 Bench Maji  Guraferda       15
 5 Bench Maji  Sheko           15
 6 Gedio       Dila Zuria      15
 7 Gedio       Wenago          15
 8 Gedio       Yirgachefe      15
 9 Ilu AbaBora Ale             15
10 Ilu AbaBora Matu            15
# ℹ 17 more rows
…
Arrange()

Faz uma reordenação para fins de visualização

# Ordena do menor para o maior:
cr %>%
  count(zone, shade) %>% 
  arrange(n)

# A tibble: 25 × 3
   zone         shade          n
   <chr>        <chr>      <int>
 1 Keffa        Mid shade      4
 2 Sidama       Mid shade      4
 3 Bale         Mid shade      6
 4 Jimma        Sun            6
 5 Gedio        Mid shade      8
 6 Jimma        Mid shade      8
 7 West Wellega Mid shade      8
 8 Bale         Full shade    10
 9 Sheka        Mid shade     10
10 Sheka        Sun           10
# ℹ 15 more rows

# Ordena por ordem alfabetica: 
cr %>%
  count(zone, shade) %>% 
  arrange(shade)

# A tibble: 25 × 3
   zone         shade          n
   <chr>        <chr>      <int>
 1 Bale         Full shade    10
 2 Gedio        Full shade    24
 3 Ilu AbaBora  Full shade    22
 4 Jimma        Full shade    31
 5 Keffa        Full shade    41
 6 Sheka        Full shade    25
 7 Sidama       Full shade    39
 8 West Wellega Full shade    18
 9 Bale         Mid shade      6
10 Bench Maji   Mid shade     19
# ℹ 15 more rows
…
Seleção e filtro

Seleção de coluna e filtragem de linhas

cr %>%
  select( farm, region,cultivar, sev2)

# A tibble: 405 × 4
    farm region cultivar  sev2
   <dbl> <chr>  <chr>    <dbl>
 1     1 SNNPR  Local    55.6 
 2     2 SNNPR  Mixture  17.9 
 3     3 SNNPR  Mixture   8.25
 4     4 SNNPR  Local    46.1 
 5     5 SNNPR  Local    12.3 
 6     6 SNNPR  Mixture  19.9 
 7     7 SNNPR  Mixture  11.9 
 8     8 SNNPR  Local    55.6 
 9     9 SNNPR  Local    11.6 
10    10 SNNPR  Mixture  11.4 
# ℹ 395 more rows

cr2 <- cr %>%
  select( farm, region,cultivar, sev2)

Filtra linhas do meu conjunto

cr2 <- cr %>% 
  select(farm, region, cultivar, sev2) %>% 
  filter(region == "Oromia")

cr2

# A tibble: 165 × 4
    farm region cultivar  sev2
   <dbl> <chr>  <chr>    <dbl>
 1   286 Oromia Mixture   7.63
 2   287 Oromia Mixture   9.39
 3   288 Oromia Mixture   1.30
 4   289 Oromia Mixture   9.79
 5   290 Oromia Local    18.5 
 6   291 Oromia Mixture  13.2 
 7   292 Oromia Mixture   5.60
 8   293 Oromia Mixture   1.06
 9   294 Oromia Local    17.6 
10   295 Oromia Mixture  15.4 
# ℹ 155 more rows

Cria subconjuntos

Utiliza as funções select() e filter() do pacote dplyr para selecionar colunas e linhas, respectivamente.

#filtra Oromia
cr_oromia <- cr %>% 
  select(farm, region, cultivar, sev2) %>% 
  filter(region == "Oromia")

cr_oromia

# A tibble: 165 × 4
    farm region cultivar  sev2
   <dbl> <chr>  <chr>    <dbl>
 1   286 Oromia Mixture   7.63
 2   287 Oromia Mixture   9.39
 3   288 Oromia Mixture   1.30
 4   289 Oromia Mixture   9.79
 5   290 Oromia Local    18.5 
 6   291 Oromia Mixture  13.2 
 7   292 Oromia Mixture   5.60
 8   293 Oromia Mixture   1.06
 9   294 Oromia Local    17.6 
10   295 Oromia Mixture  15.4 
# ℹ 155 more rows

#filtra SNNPR
cr_pr <- cr %>% 
 select(farm, region, cultivar, sev2) %>% 
  filter(region == "SNNPR") 

cr_pr

# A tibble: 240 × 4
    farm region cultivar  sev2
   <dbl> <chr>  <chr>    <dbl>
 1     1 SNNPR  Local    55.6 
 2     2 SNNPR  Mixture  17.9 
 3     3 SNNPR  Mixture   8.25
 4     4 SNNPR  Local    46.1 
 5     5 SNNPR  Local    12.3 
 6     6 SNNPR  Mixture  19.9 
 7     7 SNNPR  Mixture  11.9 
 8     8 SNNPR  Local    55.6 
 9     9 SNNPR  Local    11.6 
10    10 SNNPR  Mixture  11.4 
# ℹ 230 more rows
…
